{
  "file_generated_by": "FlutterFire CLI",
  "purpose": "FirebaseAppID & ProjectID for this Firebase app in this directory",
  "GOOGLE_APP_ID": "1:447490203704:ios:07b6761829e12c0fa2c6cd",
  "FIREBASE_PROJECT_ID": "recycle-fcc6d",
  "GCM_SENDER_ID": "447490203704"
}