{
  "project_info": {
    "project_number": "447490203704",
    "project_id": "recycle-fcc6d",
    "storage_bucket": "recycle-fcc6d.appspot.com"
  },
  "client": [
    {
      "client_info": {
        "mobilesdk_app_id": "1:447490203704:android:81d76d05151d73c2a2c6cd",
        "android_client_info": {
          "package_name": "com.example.flutter_application_1"
        }
      },
      "oauth_client": [
        {
          "client_id": "447490203704-7qi9b8sj5dji21c3q7c1iptk9s3m0ijc.apps.googleusercontent.com",
          "client_type": 3
        }
      ],
      "api_key": [
        {
          "current_key": "AIzaSyAXendrYC5HbulCigwmOFJCS3tddH56n8M"
        }
      ],
      "services": {
        "appinvite_service": {
          "other_platform_oauth_client": [
            {
              "client_id": "447490203704-7qi9b8sj5dji21c3q7c1iptk9s3m0ijc.apps.googleusercontent.com",
              "client_type": 3
            },
            {
              "client_id": "447490203704-isjeh5au02fboqefiaf16qj0d43bttmh.apps.googleusercontent.com",
              "client_type": 2,
              "ios_info": {
                "bundle_id": "com.example.flutterApplication1"
              }
            }
          ]
        }
      }
    }
  ],
  "configuration_version": "1"
}